{
  "$schema": "https://json-schema.org/draft/2020-12/schema",
  "type": "object",
  "properties": {
    "y": {
      "type": "object",
      "properties": {
        "a": {
          "type": "string"
        },
        "b": {
          "type": "number"
        },
        "c": {
          "type": "boolean"
        },
        "d": {
          "type": "array",
          "items": {
            "type": "integer"
          }
        }
      }
    }
  }
}
